{
    "name": "ElevatorTest",
    "references": [
        "ElevatorScripts"
    ],
    "optionalUnityReferences": [
        "TestAssemblies"
    ],
    "includePlatforms": [],
    "excludePlatforms": [],
    "allowUnsafeCode": false
}